<?xml version="1.0" encoding="utf-8"?>
<!-- Generator: Adobe Illustrator 19.0.0, SVG Export Plug-In . SVG Version: 6.00 Build 0)  -->
<svg version="1.1" id="Calque_1" xmlns="http://www.w3.org/2000/svg" xmlns:xlink="http://www.w3.org/1999/xlink" x="0px" y="0px"
	 viewBox="0 0 120 20.7" style="enable-background:new 0 0 120 20.7;" xml:space="preserve">
<style type="text/css">
	.st0{fill:#2E2D2D;}
</style>
<g>
	<path class="st0" d="M11.4,8c-0.6-0.3-1.2-0.6-1.9-0.8C8.9,7,8.2,6.8,7.5,6.6C6.9,6.5,6.3,6.3,5.8,6.1C5.3,5.9,4.9,5.7,4.6,5.4
		C4.4,5.2,4.3,4.9,4.3,4.6c0-0.5,0.2-0.9,0.6-1.2C5.3,3,6,2.8,6.7,2.8c1.1,0,1.9,0.2,2.4,0.7C9.6,4,9.9,4.4,9.9,4.8v0.6
		c0,0.5,0.3,0.8,0.8,0.8H12c0.5,0,0.8-0.3,0.8-0.8V0.9c0-0.5-0.3-0.8-0.8-0.8h-1.2c-0.5,0-0.8,0.3-0.8,0.8C9.1,0.3,8,0,6.6,0
		C5,0,3.6,0.4,2.7,1.3c-1,0.9-1.5,2-1.5,3.3c0,0.8,0.2,1.5,0.6,2.2c0.4,0.6,0.9,1.1,1.5,1.4C3.8,8.5,4.5,8.7,5.2,9
		c0.7,0.2,1.3,0.4,2,0.6c0.6,0.2,1.2,0.3,1.7,0.5c0.5,0.2,0.8,0.4,1.1,0.6c0.2,0.2,0.3,0.5,0.3,0.8c0,0.6-0.2,1-0.7,1.4
		c-0.5,0.4-1.2,0.5-2.1,0.5c-0.5,0-1.1-0.1-1.5-0.3c-0.5-0.2-0.8-0.4-1.1-0.6c-0.3-0.2-0.6-0.6-0.9-1c-0.4-0.5-0.4-0.7-0.4-0.7v-0.4
		c0-0.5-0.3-0.8-0.8-0.8H1.6c-0.5,0-0.8,0.3-0.8,0.8v4.8c0,0.5,0.3,0.8,0.8,0.8h1.2c0.5,0,0.8-0.3,0.8-0.8l0-0.5
		c0.3,0.2,0.6,0.4,0.9,0.7c0.9,0.6,2.1,0.8,3.4,0.8c1.9,0,3.3-0.4,4.2-1.3c1-0.9,1.5-2,1.5-3.4c0-0.8-0.2-1.5-0.6-2.1
		C12.6,8.8,12.1,8.3,11.4,8z"/>
	<path class="st0" d="M25.6,15.2v-0.9c0-0.5-0.3-0.8-0.8-0.8h-0.6V5.6c0-0.5-0.3-0.8-0.8-0.8h-2.6c-0.5,0-0.8,0.3-0.8,0.8v0.9
		c0,0.5,0.3,0.8,0.8,0.8h0.5v5c0,0-0.1,0.2-0.3,0.4c-0.5,0.6-1.1,0.9-1.9,0.9c-0.6,0-1-0.2-1.3-0.5c-0.3-0.3-0.4-0.8-0.4-1.5V6.2
		c0-0.9-0.5-1.4-1.5-1.4h-2c-0.5,0-0.8,0.3-0.8,0.8v0.9c0,0.5,0.3,0.8,0.8,0.8h0.6V12c0,1.2,0.4,2.2,1.1,3c0.7,0.8,1.8,1.1,3,1.1
		c1.2,0,2.1-0.3,2.8-0.9c0.2,0.5,0.7,0.8,1.3,0.8h1.8C25.3,16,25.6,15.7,25.6,15.2z"/>
	<path class="st0" d="M32.2,4.6c-1,0-1.8,0.2-2.5,0.7c-0.1,0.1-0.3,0.2-0.4,0.3l0,0c0-0.5-0.3-0.8-0.8-0.8h-2.4
		c-0.5,0-0.8,0.3-0.8,0.8v0.9c0,0.5,0.3,0.8,0.8,0.8h0.5v10.9H26c-0.5,0-0.8,0.3-0.8,0.8v0.9c0,0.5,0.3,0.8,0.8,0.8h4.1
		c0.5,0,0.8-0.3,0.8-0.8V19c0-0.5-0.3-0.8-0.8-0.8h-0.8v-2.9c0.1,0.1,0.2,0.2,0.3,0.3c0.7,0.5,1.5,0.7,2.5,0.7
		c1.6,0,2.8-0.6,3.8-1.7c0.9-1.1,1.4-2.5,1.4-4.2c0-1.7-0.5-3.1-1.4-4.1C35,5.2,33.7,4.6,32.2,4.6z M32,7.2c0.7,0,1.3,0.3,1.8,0.8
		c0.5,0.6,0.8,1.4,0.8,2.4c0,1-0.2,1.8-0.8,2.4c-0.5,0.6-1.1,0.8-1.8,0.8c-0.7,0-1.3-0.3-1.9-0.8c-0.5-0.5-0.8-1.3-0.8-2.4
		c0-1,0.3-1.9,0.8-2.4C30.6,7.5,31.2,7.2,32,7.2z"/>
	<path class="st0" d="M47.5,12.1L47.5,12.1c-0.2-0.2-0.4-0.2-0.6-0.2c-0.1,0-0.4,0-0.6,0.3l0,0.1c-0.1,0.2-0.4,0.5-1,0.9
		c-0.5,0.3-1.1,0.5-1.9,0.5c-0.7,0-1.3-0.3-1.9-0.8c-0.4-0.4-0.7-1-0.8-1.7h6.8c0.5,0,0.9-0.3,0.9-0.8v-0.2c0-1.7-0.4-3-1.3-4
		c-0.9-1-2.2-1.5-3.7-1.5c-1.5,0-2.9,0.5-3.9,1.5c-1.1,1-1.6,2.4-1.6,4.2c0,1.7,0.5,3.2,1.6,4.2c1.1,1,2.4,1.6,4,1.6
		c0.7,0,1.3-0.1,2-0.3c0.6-0.2,1.1-0.4,1.5-0.7c0.4-0.3,0.7-0.5,0.9-0.8c0.2-0.2,0.4-0.4,0.4-0.5c0.1-0.2,0.2-0.4,0.2-0.5
		c0-0.2-0.1-0.4-0.3-0.6L47.5,12.1z M41.5,7.7c0.5-0.4,1.1-0.6,1.8-0.6c0.7,0,1.2,0.2,1.6,0.6c0.3,0.3,0.5,0.6,0.6,1.1h-4.6
		C40.9,8.3,41.2,8,41.5,7.7z"/>
	<path class="st0" d="M56.8,4.7c-0.8,0-1.5,0.1-2.1,0.3c-0.6,0.2-1.1,0.5-1.4,0.8c-0.1,0.1-0.3,0.2-0.4,0.4V5.6
		c0-0.5-0.3-0.8-0.8-0.8h-2.4c-0.5,0-0.8,0.3-0.8,0.8v0.9c0,0.5,0.3,0.8,0.8,0.8h0.6v6.2h-0.6c-0.5,0-0.8,0.3-0.8,0.8v0.9
		c0,0.5,0.3,0.8,0.8,0.8h3.9c0.5,0,0.8-0.3,0.8-0.8v-0.9c0-0.5-0.3-0.8-0.8-0.8h-0.5v-2.9c0-0.8,0.3-1.5,0.9-2.2
		c0.6-0.6,1.4-1,2.4-1h0.4c0.5,0,0.8-0.3,0.8-0.8V5.6C57.7,5.1,57.3,4.7,56.8,4.7z"/>
	<path class="st0" d="M67.7,8.5c-0.5-0.3-1.2-0.5-1.8-0.7c-0.7-0.2-1.3-0.4-2-0.6c-0.7-0.2-1.3-0.4-1.8-0.6c-0.5-0.2-1-0.5-1.3-0.8
		c-0.3-0.3-0.5-0.8-0.5-1.2c0-0.7,0.3-1.2,0.8-1.7c0.6-0.4,1.3-0.6,2.2-0.6c1.2,0,2.1,0.3,2.8,0.9C66.6,3.7,67,4.3,67,4.8v0.6
		c0,0.2,0.1,0.2,0.2,0.2h1.3c0.2,0,0.2-0.1,0.2-0.2V0.9c0-0.2-0.1-0.2-0.2-0.2h-1.2c-0.2,0-0.3,0.1-0.3,0.2l0,1.3
		c-0.9-1.1-2.2-1.6-4.1-1.6c-1.5,0-2.6,0.4-3.5,1.1c-0.9,0.8-1.3,1.7-1.3,2.9c0,0.7,0.2,1.3,0.5,1.9c0.3,0.5,0.8,0.9,1.3,1.2
		c0.5,0.3,1.1,0.5,1.8,0.8c0.7,0.2,1.3,0.4,2,0.6c0.7,0.2,1.2,0.3,1.8,0.5c0.5,0.2,1,0.4,1.3,0.8c0.3,0.3,0.5,0.7,0.5,1.2
		c0,0.8-0.3,1.4-0.9,1.8c-0.6,0.4-1.4,0.7-2.5,0.7c-0.6,0-1.2-0.1-1.7-0.3c-0.5-0.2-1-0.4-1.3-0.7c-0.3-0.3-0.6-0.6-0.9-1.1
		c-0.3-0.4-0.5-0.8-0.5-1v-0.4c0-0.2-0.1-0.3-0.2-0.3H58c-0.2,0-0.3,0.1-0.3,0.3v4.8c0,0.2,0.1,0.2,0.3,0.2h1.2
		c0.2,0,0.2-0.1,0.2-0.2l0-2c0.4,0.6,1,1.1,1.8,1.6c0.8,0.5,1.9,0.8,3.1,0.8c1.7,0,3-0.4,3.9-1.2c0.9-0.8,1.3-1.8,1.3-3
		c0-0.7-0.2-1.3-0.5-1.8C68.7,9.2,68.2,8.8,67.7,8.5z"/>
	<path class="st0" d="M76.9,13.8c-0.1-0.1-0.2-0.1-0.4,0c-0.3,0.3-0.6,0.4-1.2,0.4c-0.5,0-0.9-0.2-1.2-0.5c-0.3-0.3-0.5-0.9-0.5-1.6
		V6.7h2.6c0.2,0,0.3-0.1,0.3-0.3V5.6c0-0.2-0.1-0.3-0.3-0.3h-2.6V3.3c0-0.2-0.1-0.3-0.3-0.3h-1.2c-0.2,0-0.3,0.1-0.3,0.3v2.1h-1.2
		c-0.2,0-0.3,0.1-0.3,0.3v0.8c0,0.2,0.1,0.3,0.3,0.3h1.2v5.4c0,1.1,0.3,2,0.9,2.6c0.6,0.6,1.3,0.9,2.2,0.9c0.9,0,1.7-0.3,2.3-0.8
		c0.1-0.1,0.1-0.2,0.1-0.2c0-0.1,0-0.1-0.1-0.2L76.9,13.8z"/>
	<path class="st0" d="M85.5,5.3c-0.7,0-1.3,0.1-1.9,0.3c-0.6,0.2-1,0.4-1.3,0.7c-0.3,0.3-0.6,0.6-0.8,1c-0.2,0.4-0.4,0.7-0.4,0.9H81
		V5.6c0-0.2-0.1-0.2-0.3-0.2h-2.4c-0.2,0-0.3,0.1-0.3,0.2v0.9c0,0.2,0.1,0.2,0.3,0.2h1.1v7.4h-1.1c-0.2,0-0.3,0.1-0.3,0.2v0.9
		c0,0.2,0.1,0.2,0.3,0.2h3.9c0.2,0,0.3-0.1,0.3-0.2v-0.9c0-0.2-0.1-0.2-0.3-0.2h-1.1v-3.5c0-1,0.3-1.8,1-2.6
		c0.7-0.8,1.6-1.1,2.8-1.1h0.4c0.2,0,0.3-0.1,0.3-0.3V5.6C85.7,5.4,85.6,5.3,85.5,5.3z"/>
	<path class="st0" d="M91,5.2c-1.5,0-2.7,0.5-3.7,1.4c-1,0.9-1.5,2.2-1.5,3.8c0,1.6,0.5,2.9,1.4,3.8c1,1,2.2,1.4,3.7,1.4
		c1.5,0,2.7-0.5,3.7-1.4c1-1,1.4-2.2,1.4-3.8s-0.5-2.8-1.5-3.8C93.7,5.7,92.5,5.2,91,5.2z M93.4,13.1c-0.7,0.7-1.5,1-2.4,1
		c-1,0-1.8-0.3-2.4-1c-0.7-0.7-1-1.6-1-2.7s0.3-2,1-2.7c0.7-0.7,1.5-1,2.4-1c0.9,0,1.7,0.3,2.4,1c0.7,0.7,1,1.6,1,2.7
		S94.1,12.4,93.4,13.1z"/>
	<path class="st0" d="M108.1,14.1h-1.2V8.8c0-1.1-0.3-2-0.9-2.6s-1.5-1-2.6-1c-1.5,0-2.6,0.6-3.3,1.8H100l0-1.4
		c0-0.2-0.1-0.2-0.3-0.2h-2.4c-0.2,0-0.3,0.1-0.3,0.2v0.9c0,0.2,0.1,0.2,0.3,0.2h1.1v7.4h-1.1c-0.2,0-0.3,0.1-0.3,0.2v0.9
		c0,0.2,0.1,0.2,0.3,0.2h3.9c0.2,0,0.3-0.1,0.3-0.2v-0.9c0-0.2-0.1-0.2-0.3-0.2h-1.1V8.4c0.1-0.2,0.2-0.4,0.3-0.5
		c0.6-0.9,1.4-1.3,2.5-1.3c0.7,0,1.3,0.2,1.7,0.7c0.4,0.4,0.6,1.1,0.6,1.9v5.4c0,0.6,0.3,0.9,0.9,0.9h2c0.2,0,0.3-0.1,0.3-0.2v-0.9
		C108.3,14.2,108.3,14.1,108.1,14.1z"/>
	<path class="st0" d="M119.7,5.3h-2.4c-0.2,0-0.2,0.1-0.2,0.2l0,1.6h0c-0.3-0.6-0.7-1-1.3-1.4c-0.6-0.4-1.3-0.6-2.2-0.6
		c-1.4,0-2.5,0.5-3.3,1.4c-0.9,0.9-1.3,2.2-1.3,3.7s0.4,2.8,1.3,3.8c0.8,1,2,1.5,3.4,1.5c0.9,0,1.6-0.2,2.1-0.6
		c0.6-0.4,1-0.9,1.2-1.5v2.3c0,1-0.3,1.8-0.9,2.2c-0.6,0.5-1.4,0.7-2.4,0.7c-0.5,0-1-0.1-1.5-0.2c-0.2-0.1-0.4-0.1-0.5-0.2
		c-0.2-0.1-0.3-0.1-0.4-0.2c-0.1-0.1-0.2-0.1-0.3-0.2c-0.1-0.1-0.2-0.1-0.2-0.2c-0.1-0.1-0.1-0.1-0.1-0.1c-0.2-0.1-0.3-0.1-0.3,0
		l-0.5,0.8c-0.2,0.2,0.1,0.5,0.7,0.9c0.1,0.1,0.3,0.2,0.4,0.2c0.2,0.1,0.3,0.2,0.5,0.2c0.2,0.1,0.5,0.2,0.8,0.3
		c0.3,0.1,0.9,0.1,1.6,0.1c1.5,0,2.7-0.4,3.6-1.1c0.9-0.7,1.3-1.8,1.3-3.3V6.7h1.1c0.2,0,0.2-0.1,0.2-0.2V5.6
		C120,5.4,119.9,5.3,119.7,5.3z M116.1,13.1c-0.6,0.7-1.3,1-2.3,1s-1.7-0.3-2.3-1c-0.6-0.7-0.9-1.6-0.9-2.7c0-1.1,0.3-2,0.9-2.7
		c0.6-0.7,1.4-1,2.3-1s1.7,0.3,2.3,1c0.6,0.7,0.9,1.6,0.9,2.7C117,11.5,116.7,12.5,116.1,13.1z"/>
</g>
</svg>
