<?xml version="1.0" encoding="utf-8"?>
<!-- Generator: Adobe Illustrator 19.0.0, SVG Export Plug-In . SVG Version: 6.00 Build 0)  -->
<svg version="1.1" id="Calque_1" xmlns="http://www.w3.org/2000/svg" xmlns:xlink="http://www.w3.org/1999/xlink" x="0px" y="0px"
	 viewBox="0 0 120 122.1" style="enable-background:new 0 0 120 122.1;" xml:space="preserve">
<style type="text/css">
	.st0{fill:#2E2D2D;}
</style>
<g>
	<path class="st0" d="M11.4,109.4c-0.6-0.3-1.2-0.6-1.9-0.8c-0.7-0.2-1.3-0.4-2-0.6c-0.6-0.2-1.2-0.3-1.8-0.5
		c-0.5-0.2-0.9-0.4-1.1-0.7c-0.2-0.2-0.3-0.5-0.3-0.8c0-0.5,0.2-0.9,0.6-1.2c0.5-0.4,1.1-0.5,1.8-0.5c1.1,0,1.9,0.2,2.4,0.7
		c0.5,0.5,0.8,0.9,0.8,1.3v0.6c0,0.5,0.3,0.8,0.8,0.8H12c0.5,0,0.8-0.3,0.8-0.8v-4.5c0-0.5-0.3-0.8-0.8-0.8h-1.2
		c-0.5,0-0.8,0.3-0.8,0.8c-0.9-0.6-2.1-0.9-3.5-0.9c-1.6,0-2.9,0.4-3.9,1.3c-1,0.9-1.5,2-1.5,3.3c0,0.8,0.2,1.5,0.6,2.2
		c0.4,0.6,0.9,1.1,1.5,1.4c0.6,0.3,1.2,0.6,1.9,0.8c0.7,0.2,1.3,0.4,2,0.6c0.6,0.2,1.2,0.3,1.7,0.5c0.5,0.2,0.8,0.4,1.1,0.6
		c0.2,0.2,0.3,0.5,0.3,0.8c0,0.6-0.2,1-0.7,1.4c-0.5,0.4-1.2,0.5-2.1,0.5c-0.5,0-1.1-0.1-1.5-0.3c-0.5-0.2-0.8-0.4-1.1-0.6
		c-0.3-0.2-0.6-0.6-0.9-1c-0.4-0.5-0.4-0.7-0.4-0.7v-0.4c0-0.5-0.3-0.8-0.8-0.8H1.6c-0.5,0-0.8,0.3-0.8,0.8v4.8
		c0,0.5,0.3,0.8,0.8,0.8h1.2c0.5,0,0.8-0.3,0.8-0.8l0-0.5c0.3,0.2,0.6,0.4,0.9,0.7c0.9,0.6,2.1,0.8,3.4,0.8c1.9,0,3.3-0.4,4.2-1.3
		c1-0.9,1.5-2,1.5-3.4c0-0.8-0.2-1.5-0.6-2.1C12.6,110.2,12.1,109.7,11.4,109.4z"/>
	<path class="st0" d="M25.6,116.6v-0.9c0-0.5-0.3-0.8-0.8-0.8h-0.6V107c0-0.5-0.3-0.8-0.8-0.8h-2.6c-0.5,0-0.8,0.3-0.8,0.8v0.9
		c0,0.5,0.3,0.8,0.8,0.8h0.5v5c0,0-0.1,0.2-0.3,0.4c-0.5,0.6-1.1,0.9-1.9,0.9c-0.6,0-1-0.2-1.3-0.5c-0.3-0.3-0.4-0.8-0.4-1.5v-5.4
		c0-0.9-0.5-1.4-1.5-1.4h-2c-0.5,0-0.8,0.3-0.8,0.8v0.9c0,0.5,0.3,0.8,0.8,0.8h0.6v4.8c0,1.2,0.4,2.2,1.1,3c0.7,0.8,1.8,1.1,3,1.1
		c1.2,0,2.1-0.3,2.8-0.9c0.2,0.5,0.7,0.8,1.3,0.8h1.8C25.3,117.4,25.6,117.1,25.6,116.6z"/>
	<path class="st0" d="M32.2,106c-1,0-1.8,0.2-2.5,0.7c-0.1,0.1-0.3,0.2-0.4,0.3l0,0c0-0.5-0.3-0.8-0.8-0.8h-2.4
		c-0.5,0-0.8,0.3-0.8,0.8v0.9c0,0.5,0.3,0.8,0.8,0.8h0.5v10.9H26c-0.5,0-0.8,0.3-0.8,0.8v0.9c0,0.5,0.3,0.8,0.8,0.8h4.1
		c0.5,0,0.8-0.3,0.8-0.8v-0.9c0-0.5-0.3-0.8-0.8-0.8h-0.8v-2.9c0.1,0.1,0.2,0.2,0.3,0.3c0.7,0.5,1.5,0.7,2.5,0.7
		c1.6,0,2.8-0.6,3.8-1.7c0.9-1.1,1.4-2.5,1.4-4.2c0-1.7-0.5-3.1-1.4-4.1C35,106.6,33.7,106,32.2,106z M32,108.6
		c0.7,0,1.3,0.3,1.8,0.8c0.5,0.6,0.8,1.4,0.8,2.4c0,1-0.2,1.8-0.8,2.4c-0.5,0.6-1.1,0.8-1.8,0.8c-0.7,0-1.3-0.3-1.9-0.8
		c-0.5-0.5-0.8-1.3-0.8-2.4c0-1,0.3-1.9,0.8-2.4C30.6,108.9,31.2,108.6,32,108.6z"/>
	<path class="st0" d="M47.5,113.5L47.5,113.5c-0.2-0.2-0.4-0.2-0.6-0.2c-0.1,0-0.4,0-0.6,0.3l0,0.1c-0.1,0.2-0.4,0.5-1,0.9
		c-0.5,0.3-1.1,0.5-1.9,0.5c-0.7,0-1.3-0.3-1.9-0.8c-0.4-0.4-0.7-1-0.8-1.7h6.8c0.5,0,0.9-0.3,0.9-0.8v-0.2c0-1.7-0.4-3-1.3-4
		c-0.9-1-2.2-1.5-3.7-1.5c-1.5,0-2.9,0.5-3.9,1.5c-1.1,1-1.6,2.4-1.6,4.2c0,1.7,0.5,3.2,1.6,4.2c1.1,1,2.4,1.6,4,1.6
		c0.7,0,1.3-0.1,2-0.3c0.6-0.2,1.1-0.4,1.5-0.7c0.4-0.3,0.7-0.5,0.9-0.8c0.2-0.2,0.4-0.4,0.4-0.5c0.1-0.2,0.2-0.4,0.2-0.5
		c0-0.2-0.1-0.4-0.3-0.6L47.5,113.5z M41.5,109.1c0.5-0.4,1.1-0.6,1.8-0.6c0.7,0,1.2,0.2,1.6,0.6c0.3,0.3,0.5,0.6,0.6,1.1h-4.6
		C40.9,109.7,41.2,109.4,41.5,109.1z"/>
	<path class="st0" d="M56.8,106.1c-0.8,0-1.5,0.1-2.1,0.3c-0.6,0.2-1.1,0.5-1.4,0.8c-0.1,0.1-0.3,0.2-0.4,0.4V107
		c0-0.5-0.3-0.8-0.8-0.8h-2.4c-0.5,0-0.8,0.3-0.8,0.8v0.9c0,0.5,0.3,0.8,0.8,0.8h0.6v6.2h-0.6c-0.5,0-0.8,0.3-0.8,0.8v0.9
		c0,0.5,0.3,0.8,0.8,0.8h3.9c0.5,0,0.8-0.3,0.8-0.8v-0.9c0-0.5-0.3-0.8-0.8-0.8h-0.5V112c0-0.8,0.3-1.5,0.9-2.2c0.6-0.6,1.4-1,2.4-1
		h0.4c0.5,0,0.8-0.3,0.8-0.8V107C57.7,106.5,57.3,106.1,56.8,106.1z"/>
	<path class="st0" d="M67.7,109.9c-0.5-0.3-1.2-0.5-1.8-0.7c-0.7-0.2-1.3-0.4-2-0.6c-0.7-0.2-1.3-0.4-1.8-0.6
		c-0.5-0.2-1-0.5-1.3-0.8c-0.3-0.3-0.5-0.8-0.5-1.2c0-0.7,0.3-1.2,0.8-1.7c0.6-0.4,1.3-0.6,2.2-0.6c1.2,0,2.1,0.3,2.8,0.9
		c0.6,0.6,0.9,1.1,0.9,1.7v0.6c0,0.2,0.1,0.2,0.2,0.2h1.3c0.2,0,0.2-0.1,0.2-0.2v-4.5c0-0.2-0.1-0.2-0.2-0.2h-1.2
		c-0.2,0-0.3,0.1-0.3,0.2l0,1.3c-0.9-1.1-2.2-1.6-4.1-1.6c-1.5,0-2.6,0.4-3.5,1.1c-0.9,0.8-1.3,1.7-1.3,2.9c0,0.7,0.2,1.3,0.5,1.9
		c0.3,0.5,0.8,0.9,1.3,1.2c0.5,0.3,1.1,0.5,1.8,0.8c0.7,0.2,1.3,0.4,2,0.6c0.7,0.2,1.2,0.3,1.8,0.5c0.5,0.2,1,0.4,1.3,0.8
		c0.3,0.3,0.5,0.7,0.5,1.2c0,0.8-0.3,1.4-0.9,1.8c-0.6,0.4-1.4,0.7-2.5,0.7c-0.6,0-1.2-0.1-1.7-0.3c-0.5-0.2-1-0.4-1.3-0.7
		c-0.3-0.3-0.6-0.6-0.9-1.1c-0.3-0.4-0.5-0.8-0.5-1v-0.4c0-0.2-0.1-0.3-0.2-0.3H58c-0.2,0-0.3,0.1-0.3,0.3v4.8
		c0,0.2,0.1,0.2,0.3,0.2h1.2c0.2,0,0.2-0.1,0.2-0.2l0-2c0.4,0.6,1,1.1,1.8,1.6c0.8,0.5,1.9,0.8,3.1,0.8c1.7,0,3-0.4,3.9-1.2
		c0.9-0.8,1.3-1.8,1.3-3c0-0.7-0.2-1.3-0.5-1.8C68.7,110.6,68.2,110.2,67.7,109.9z"/>
	<path class="st0" d="M76.9,115.2c-0.1-0.1-0.2-0.1-0.4,0c-0.3,0.3-0.6,0.4-1.2,0.4c-0.5,0-0.9-0.2-1.2-0.5
		c-0.3-0.3-0.5-0.9-0.5-1.6v-5.4h2.6c0.2,0,0.3-0.1,0.3-0.3V107c0-0.2-0.1-0.3-0.3-0.3h-2.6v-2.1c0-0.2-0.1-0.3-0.3-0.3h-1.2
		c-0.2,0-0.3,0.1-0.3,0.3v2.1h-1.2c-0.2,0-0.3,0.1-0.3,0.3v0.8c0,0.2,0.1,0.3,0.3,0.3h1.2v5.4c0,1.1,0.3,2,0.9,2.6s1.3,0.9,2.2,0.9
		c0.9,0,1.7-0.3,2.3-0.8c0.1-0.1,0.1-0.2,0.1-0.2c0-0.1,0-0.1-0.1-0.2L76.9,115.2z"/>
	<path class="st0" d="M85.5,106.7c-0.7,0-1.3,0.1-1.9,0.3c-0.6,0.2-1,0.4-1.3,0.7c-0.3,0.3-0.6,0.6-0.8,1s-0.4,0.7-0.4,0.9H81V107
		c0-0.2-0.1-0.2-0.3-0.2h-2.4c-0.2,0-0.3,0.1-0.3,0.2v0.9c0,0.2,0.1,0.2,0.3,0.2h1.1v7.4h-1.1c-0.2,0-0.3,0.1-0.3,0.2v0.9
		c0,0.2,0.1,0.2,0.3,0.2h3.9c0.2,0,0.3-0.1,0.3-0.2v-0.9c0-0.2-0.1-0.2-0.3-0.2h-1.1V112c0-1,0.3-1.8,1-2.6c0.7-0.8,1.6-1.1,2.8-1.1
		h0.4c0.2,0,0.3-0.1,0.3-0.3V107C85.7,106.8,85.6,106.7,85.5,106.7z"/>
	<path class="st0" d="M91,106.6c-1.5,0-2.7,0.5-3.7,1.4c-1,0.9-1.5,2.2-1.5,3.8c0,1.6,0.5,2.9,1.4,3.8c1,1,2.2,1.4,3.7,1.4
		c1.5,0,2.7-0.5,3.7-1.4c1-1,1.4-2.2,1.4-3.8s-0.5-2.8-1.5-3.8C93.7,107.1,92.5,106.6,91,106.6z M93.4,114.5c-0.7,0.7-1.5,1-2.4,1
		c-1,0-1.8-0.3-2.4-1c-0.7-0.7-1-1.6-1-2.7s0.3-2,1-2.7c0.7-0.7,1.5-1,2.4-1c0.9,0,1.7,0.3,2.4,1c0.7,0.7,1,1.6,1,2.7
		S94.1,113.8,93.4,114.5z"/>
	<path class="st0" d="M108.1,115.5h-1.2v-5.3c0-1.1-0.3-2-0.9-2.6c-0.6-0.6-1.5-1-2.6-1c-1.5,0-2.6,0.6-3.3,1.8H100l0-1.4
		c0-0.2-0.1-0.2-0.3-0.2h-2.4c-0.2,0-0.3,0.1-0.3,0.2v0.9c0,0.2,0.1,0.2,0.3,0.2h1.1v7.4h-1.1c-0.2,0-0.3,0.1-0.3,0.2v0.9
		c0,0.2,0.1,0.2,0.3,0.2h3.9c0.2,0,0.3-0.1,0.3-0.2v-0.9c0-0.2-0.1-0.2-0.3-0.2h-1.1v-5.7c0.1-0.2,0.2-0.4,0.3-0.5
		c0.6-0.9,1.4-1.3,2.5-1.3c0.7,0,1.3,0.2,1.7,0.7c0.4,0.4,0.6,1.1,0.6,1.9v5.4c0,0.6,0.3,0.9,0.9,0.9h2c0.2,0,0.3-0.1,0.3-0.2v-0.9
		C108.3,115.6,108.3,115.5,108.1,115.5z"/>
	<path class="st0" d="M119.7,106.7h-2.4c-0.2,0-0.2,0.1-0.2,0.2l0,1.6h0c-0.3-0.6-0.7-1-1.3-1.4c-0.6-0.4-1.3-0.6-2.2-0.6
		c-1.4,0-2.5,0.5-3.3,1.4c-0.9,0.9-1.3,2.2-1.3,3.7s0.4,2.8,1.3,3.8c0.8,1,2,1.5,3.4,1.5c0.9,0,1.6-0.2,2.1-0.6
		c0.6-0.4,1-0.9,1.2-1.5v2.3c0,1-0.3,1.8-0.9,2.2c-0.6,0.5-1.4,0.7-2.4,0.7c-0.5,0-1-0.1-1.5-0.2c-0.2-0.1-0.4-0.1-0.5-0.2
		c-0.2-0.1-0.3-0.1-0.4-0.2c-0.1-0.1-0.2-0.1-0.3-0.2c-0.1-0.1-0.2-0.1-0.2-0.2c-0.1-0.1-0.1-0.1-0.1-0.1c-0.2-0.1-0.3-0.1-0.3,0
		l-0.5,0.8c-0.2,0.2,0.1,0.5,0.7,0.9c0.1,0.1,0.3,0.2,0.4,0.2c0.2,0.1,0.3,0.2,0.5,0.2c0.2,0.1,0.5,0.2,0.8,0.3
		c0.3,0.1,0.9,0.1,1.6,0.1c1.5,0,2.7-0.4,3.6-1.1c0.9-0.7,1.3-1.8,1.3-3.3v-9.1h1.1c0.2,0,0.2-0.1,0.2-0.2V107
		C120,106.8,119.9,106.7,119.7,106.7z M116.1,114.5c-0.6,0.7-1.3,1-2.3,1s-1.7-0.3-2.3-1c-0.6-0.7-0.9-1.6-0.9-2.7
		c0-1.1,0.3-2,0.9-2.7c0.6-0.7,1.4-1,2.3-1s1.7,0.3,2.3,1c0.6,0.7,0.9,1.6,0.9,2.7C117,112.9,116.7,113.8,116.1,114.5z"/>
</g>
<g>
	<g>
		<path class="st0" d="M59.8,93.2L19.4,69.7V23.6L59.7,0l40.6,23.6v46.1L59.8,93.2z M21.4,68.6l38.4,22.3l38.6-22.3V24.7L59.7,2.3
			L21.4,24.7V68.6z"/>
	</g>
	<g>
		<g>
			<g>
				<path class="st0" d="M80.9,34.9c-2.5-3.8-5.9-6.9-10-8.9c0-0.1,0-0.3,0-0.4c0-0.4-0.1-0.9-0.4-1.3l0.1-0.1l-0.5-0.5
					c-1.5-1.5-3.3-2.6-5.3-3.3c0-0.3,0.1-0.7,0.2-1.2l0.1-0.3l-0.2-0.2c-0.7-0.8-3.7-1.6-8.9-2.3l-0.1,0c-0.7,0-1.3,0.6-1.3,1.3
					c0,0.2,0,0.3,0.1,0.5l0.8,1.9c-2.4,0.7-4.6,2-6.5,3.7l-0.5,0.5l0,0c-0.2,0.4-0.4,0.8-0.4,1.3c0,0.1,0,0.3,0,0.4
					c-4.1,2-7.5,5.1-9.9,9c-2.6,4.1-4,8.8-4,13.7c0,2.4,0.3,4.7,1,7l0,0l0,0l0,0l0.1,0.2c0,0,0,0,0,0c2.5,8.3,9.2,14.8,17.5,17.2
					c0.2,0.1,0.4,0.3,0.4,0.5l0,0.3l0,0.1c0,1.7,1.4,3.1,3.1,3.1c1.7,0,3.1-1.4,3.1-3.1L59,68.2c0-1.1-0.4-2.1-1-2.9
					c0.6,0.1,1.1,0.1,1.6,0.1c0.5,0,1,0,1.6-0.1c-0.6,0.8-1,1.9-1,2.9l-0.4,5.6l0,0c0,1.7,1.4,3.1,3.1,3.1c1.7,0,3.1-1.4,3.1-3.1
					l0-0.3c0-0.2,0.2-0.4,0.4-0.5c8.3-2.3,15-8.9,17.4-17.2c0,0,0,0,0,0l0.1-0.2c0.6-2.3,1-4.6,1-7C84.9,43.7,83.5,39,80.9,34.9z
					 M53,27L53,27c0-0.4,0.2-0.7,0.4-0.9l0,0c1.8-1.3,3.9-1.9,6.1-2c2.2,0,4.3,0.7,6.1,1.9l0,0c0.3,0.2,0.4,0.5,0.4,0.9l0,0l1.1,10
					c-0.1,0.4-0.4,0.7-0.7,0.8l-0.1,0c-2.1,1-4.5,1.6-6.9,1.6c-2.4,0-4.7-0.5-6.9-1.5l-0.1,0l0,0c-0.3-0.2-0.6-0.5-0.7-0.8L53,27z
					 M58.1,73.8c0,1-0.8,1.8-1.8,1.8c-1,0-1.8-0.8-1.8-1.7l0-0.3l0-0.1c0-0.8-0.6-1.5-1.3-1.7c-6.8-1.9-12.4-6.7-15.4-13
					c0.7,0.3,1.4,0.5,2.2,0.5c2.1,0,3.9-1.3,4.6-3.2c2.1,4.1,5.8,7.3,10.3,8.5c1.6,0.5,2.7,1.9,2.7,3.5L58.1,73.8z M46.8,57
					c2.7,1.8,5.7,3,8.9,3.5l0.2,0c0,0,0,0,0,0c0,0,0,0,0,0l0.7,3.1c-0.3-0.1-0.5-0.1-0.8-0.2l0,0c-0.1,0-0.3-0.1-0.4-0.1
					C51.9,62.4,48.8,60.1,46.8,57z M59.7,56.5c-5.7,0-11.1-2.2-15.2-6.2c-0.1-0.6-0.1-1.2-0.1-1.7c0-0.9,0.1-1.8,0.2-2.7
					c0.9,2.6,3.3,4.4,6.1,4.4c1.1,0,2.1-0.3,3-0.7l5.3-2.5l0,0c0.2-0.1,0.4-0.3,0.6-0.4c0.2,0.2,0.4,0.3,0.6,0.4l5.4,2.5
					c0.9,0.5,2,0.7,3,0.7c2.8,0,5.3-1.9,6.1-4.4c0.2,0.9,0.2,1.8,0.2,2.7c0,0.6,0,1.2-0.1,1.7C70.8,54.3,65.4,56.5,59.7,56.5z
					 M72.5,57c-2,3.1-5.1,5.4-8.6,6.4c-0.2,0.1-0.4,0.1-0.6,0.2c-0.2,0-0.4,0.1-0.6,0.1l0.7-3.1c0,0,0,0,0,0c0,0,0,0,0,0l0.2,0
					C66.8,60,69.8,58.8,72.5,57z M66.1,71.8c-0.8,0.2-1.3,0.9-1.3,1.8l0,0.3c0,1-0.8,1.8-1.8,1.8c-1,0-1.8-0.8-1.8-1.8l0.4-5.6l0,0
					c0-1.4,0.8-2.7,2.1-3.3c0.1,0,0.2-0.1,0.4-0.1l0-0.1c0.1,0,0.1,0,0.2-0.1c4.5-1.3,8.2-4.5,10.3-8.6c0.7,1.9,2.5,3.2,4.7,3.2
					c0.8,0,1.6-0.2,2.2-0.5C78.5,65,72.9,69.9,66.1,71.8z M82.7,55.2L82.7,55.2c0,0.1,0,0.1-0.1,0.2C82.2,57,80.8,58,79.2,58
					c-2,0-3.7-1.6-3.7-3.7c0-0.3,0-0.7,0.1-1c0,0,0,0,0-0.1l0,0c0.2-0.8,0.4-1.6,0.5-2.4c0.1-0.1,0.1-0.2,0-0.4
					c0.1-0.6,0.1-1.3,0.1-1.9c0-2.7-0.7-5.5-2-7.9l-1.1,0.6c0,0,0,0,0,0l0,0c0.4,0.8,0.6,1.6,0.6,2.5c0,2.9-2.3,5.2-5.2,5.2
					c-0.8,0-1.7-0.2-2.4-0.6l-5.4-2.5c-0.3-0.1-0.4-0.4-0.5-0.6c0-0.1,0-0.2,0-0.2l-1.3,0l0,0c0,0.1,0,0.2,0,0.2
					c-0.1,0.3-0.2,0.5-0.5,0.6l-5.3,2.5l0,0c-0.7,0.4-1.6,0.6-2.4,0.6c-2.9,0-5.2-2.3-5.2-5.2c0-0.9,0.2-1.7,0.6-2.5l0,0
					c0,0,0,0,0,0L45,40.8c-1.3,2.4-2,5.1-2,7.9c0,0.6,0,1.3,0.1,1.9c0,0.1,0,0.2,0,0.4c0.1,0.8,0.3,1.6,0.5,2.4l0,0c0,0,0,0,0,0.1
					c0.1,0.3,0.1,0.6,0.1,1c0,2-1.6,3.7-3.7,3.7c-1.6,0-3-1-3.5-2.5c0-0.1,0-0.1-0.1-0.2c-0.6-2.2-0.9-4.4-0.9-6.6
					c0-4.6,1.3-9.1,3.8-13c2.3-3.5,5.4-6.4,9.1-8.4l2.1,9.8l0,0c0.2,0.8,0.7,1.5,1.5,1.8l0.1,0l0,0c2.3,1.1,4.8,1.6,7.4,1.6
					c2.6,0,5-0.6,7.3-1.7l0.1,0c0.7-0.4,1.3-1,1.5-1.8l2.1-9.8c3.7,1.9,6.9,4.8,9.2,8.3c2.5,3.9,3.8,8.4,3.8,13
					C83.6,50.8,83.3,53.1,82.7,55.2z"/>
			</g>
			<g>
				
					<rect x="60.9" y="30.7" transform="matrix(0.7085 0.7057 -0.7057 0.7085 41.0264 -33.9296)" class="st0" width="1.3" height="4.1"/>
			</g>
			<g>
				
					<rect x="55.6" y="32.1" transform="matrix(0.7084 0.7058 -0.7058 0.7084 39.8886 -31.1431)" class="st0" width="4.1" height="1.3"/>
			</g>
		</g>
		<g>
			<path class="st0" d="M66,79.7L66,79.7l-12.8,0c-0.4,0-0.6,0.3-0.6,0.6c0,0.4,0.3,0.6,0.6,0.6h0L66,81c0.4,0,0.6-0.3,0.6-0.6
				C66.7,80,66.4,79.7,66,79.7z"/>
		</g>
	</g>
</g>
</svg>
